{
    "prepare_queue": {
        "installed": [],
        "uninstalled": []
    },
    "config_munge": {
        "files": {}
    },
    "installed_plugins": {
        "cordova-plugin-camera": {
            "PACKAGE_NAME": "com.bluerose.thePlug"
        },
        "cordova-plugin-globalization": {
            "PACKAGE_NAME": "com.bluerose.thePlug"
        },
        "cordova-plugin-inappbrowser": {
            "PACKAGE_NAME": "com.bluerose.thePlug"
        },
        "cordova-plugin-network-information": {
            "PACKAGE_NAME": "com.bluerose.thePlug"
        },
        "cordova-plugin-splashscreen": {
            "PACKAGE_NAME": "com.bluerose.thePlug"
        },
        "cordova-plugin-statusbar": {
            "PACKAGE_NAME": "com.bluerose.thePlug"
        },
        "cordova-plugin-whitelist": {
            "PACKAGE_NAME": "com.bluerose.thePlug"
        },
        "ionic-plugin-keyboard": {
            "PACKAGE_NAME": "com.bluerose.thePlug"
        },
        "cordova-plugin-file-transfer": {
            "PACKAGE_NAME": "com.bluerose.thePlug"
        },
        "cordova-plugin-image-picker": {
            "PACKAGE_NAME": "com.bluerose.thePlug"
        },
        "com-badrit-base64": {
            "PACKAGE_NAME": "com.bluerose.thePlug"
        },
        "cordova-plugin-android-permissions": {
            "PACKAGE_NAME": "com.bluerose.thePlug"
        }
    },
    "dependent_plugins": {
        "cordova-plugin-compat": {
            "PACKAGE_NAME": "com.bluerose.thePlug"
        },
        "cordova-plugin-file": {
            "PACKAGE_NAME": "com.bluerose.thePlug"
        },
        "cordova-plugin-device": {
            "PACKAGE_NAME": "com.bluerose.thePlug"
        }
    }
}